222222222222000
222222222222000
222222222222000
222222222222222
222222222222222
222222222222222
222222222222222
222222222222222
222222222222222
222222222222222
222222222222222
222222222222222
222222222222222
222222222222222
222222222222222
222222222222222
222222222222222
222222222222222
222222222222222
222222222222222
